Live Session 2: Introduction to Data Wrangling in R – AMMnet Hackathon
…
Observation: Some improvements, but we still have vertical lines, maybe we have other group variables. Let’s only look at those rows that have more than one entry per location, month, year, age_group

#Plotting evolution over time, fix 2

data_use_ordered%>%
  group_by(location,month,year,age_group)%>%
  tally()%>%
  filter(n>1)%>%
  left_join(data_use_ordered)

# A tibble: 48 × 13
# Groups:   location, month, year [8]
   location   month  year age_group     n ages     total positive xcoord ycoord
   <chr>      <dbl> <dbl> <fct>     <int> <chr>    <dbl>    <dbl>  <dbl>  <dbl>
 1 neverwhere     6  2019 under_5       2 under_5     24        4  -20.6   30.7
 2 neverwhere     6  2019 under_5       2 under_5     26        1  -20.5   30.7
 3 neverwhere     6  2019 5_to_14       2 5_to_14     27        5  -19.7   30.0
 4 neverwhere     6  2019 5_to_14       2 5_to_14     27        8  -19.3   30.2
 5 neverwhere     6  2019 15_above      2 15_above    70       31  -19.4   29.4
 6 neverwhere     6  2019 15_above      2 15_above    74       27  -19.2   29.2
 7 neverwhere     7  2019 under_5       2 under_5     25        5  -20.0   29.1
 8 neverwhere     7  2019 under_5       2 under_5     26        4  -20.7   28.6
 9 neverwhere     7  2019 5_to_14       2 5_to_14     27        7  -18.8   29.3
10 neverwhere     7  2019 5_to_14       2 5_to_14     23        6  -20.4   29.8
# ℹ 38 more rows
# ℹ 3 more variables: prev <dbl>, time_order_loc <dbl>, prev_updated <dbl>
…
